<svg width="40" height="40" viewBox="0 0 40 40" fill="none" xmlns="http://www.w3.org/2000/svg">
<g clip-path="url(#clip0_35_62)">
<path d="M29.1734 39.9967C26.985 39.9967 24.895 39.0533 23.4467 37.3383C23.1484 36.9867 23.195 36.4617 23.5467 36.1633C23.8984 35.8683 24.4234 35.9133 24.72 36.2633C26.155 37.965 28.4084 38.6867 30.6034 38.1583C32.6517 37.6817 34.345 35.9967 34.82 33.9617C35.5284 31.0167 34.0267 28.1183 31.2517 27.0633C29.8434 26.5317 28.85 25.225 28.655 23.6533C27.7817 16.05 26.3 9.92 23.995 4.35333C23.345 2.74333 21.74 1.66667 20 1.66667C18.26 1.66667 16.655 2.74333 16.005 4.34667C13.6984 9.91833 12.2167 16.0483 11.345 23.645C11.15 25.2233 10.155 26.53 8.74504 27.0633C5.97171 28.1167 4.47171 31.0167 5.17671 33.9567C5.65338 35.995 7.34671 37.68 9.38671 38.1567C11.5917 38.6883 13.845 37.9633 15.2784 36.2633C15.5767 35.9133 16.1017 35.87 16.4517 36.1633C16.8034 36.46 16.8484 36.9867 16.5517 37.3383C14.7084 39.5267 11.815 40.4617 9.00171 39.7767C6.32338 39.1533 4.18171 37.02 3.55338 34.34C2.65004 30.5783 4.58338 26.8617 8.15338 25.505C8.98338 25.1917 9.57171 24.4033 9.68838 23.4483C10.58 15.7 12.0967 9.42833 14.4634 3.715C15.3634 1.495 17.59 0 20 0C22.41 0 24.6367 1.495 25.5384 3.72C27.9034 9.42833 29.42 15.7 30.3117 23.455C30.4267 24.4033 31.015 25.1917 31.8434 25.5033C35.415 26.86 37.3484 30.5783 36.4434 34.345C35.8167 37.0183 33.6767 39.1533 30.99 39.7783C30.3834 39.925 29.775 39.9967 29.1734 39.9967Z" fill="#6F5DDF"/>
<path d="M20 39.9999C18.155 39.9999 16.4417 39.0833 15.42 37.5483L14.86 36.7083C14.1467 35.6383 12.9517 34.9999 11.6667 34.9999H10.8333C10.3733 34.9999 10 34.6266 10 34.1666C10 33.7066 10.3733 33.3333 10.8333 33.3333H11.6667C13.5117 33.3333 15.225 34.2499 16.2467 35.7849L16.8067 36.6249C17.52 37.6949 18.715 38.3333 20 38.3333C21.285 38.3333 22.48 37.6949 23.1933 36.6249L23.7533 35.7849C24.775 34.2499 26.4883 33.3333 28.3333 33.3333H29.1667C29.6267 33.3333 30 33.7066 30 34.1666C30 34.6266 29.6267 34.9999 29.1667 34.9999H28.3333C27.0483 34.9999 25.8533 35.6383 25.14 36.7083L24.58 37.5483C23.5583 39.0833 21.845 39.9999 20 39.9999Z" fill="#6F5DDF"/>
</g>
<defs>
<clipPath id="clip0_35_62">
<rect width="40" height="40" fill="white"/>
</clipPath>
</defs>
</svg>
