<svg width="390" height="6" viewBox="0 0 390 6" fill="none" xmlns="http://www.w3.org/2000/svg">
<rect width="390" height="6" rx="3" fill="#6F5DDF" fill-opacity="0.3"/>
<rect width="80" height="6" rx="3" fill="#6F5DDF"/>
</svg>
