<svg width="57" height="57" viewBox="0 0 57 57" fill="none" xmlns="http://www.w3.org/2000/svg">
<path d="M53.425 26.0643C53.4344 25.9066 53.4041 25.749 53.3371 25.606C53.2701 25.4629 53.1684 25.3388 53.0413 25.245C51.5319 24.2382 38.1873 15.3955 34.4526 15.0437C33.3783 14.9893 32.3054 15.175 31.3119 15.5871C30.3183 15.9993 29.4291 16.6276 28.7087 17.4264C28.6685 17.4679 28.6201 17.5006 28.5665 17.5224C28.5129 17.5442 28.4554 17.5545 28.3976 17.5527C28.3398 17.551 28.283 17.5372 28.2308 17.5122C28.1786 17.4872 28.1323 17.4516 28.0947 17.4077C27.4184 16.6084 26.5646 15.9783 25.6014 15.5678C24.6382 15.1574 23.5923 14.9779 22.5474 15.0437C18.8127 15.3955 5.46811 24.2382 3.95865 25.245C3.77664 25.3791 3.64925 25.5745 3.59995 25.7952C3.55065 26.0158 3.58277 26.2468 3.69038 26.4457C4.07216 27.0793 13.145 41.9603 22.3787 41.9603C26.3407 41.9543 26.9754 41.9774 28.2277 41.9829C29.4203 41.9935 30.575 41.9464 34.6213 41.9603C44.0508 41.7789 53.0856 27.0759 53.425 26.0643ZM22.7144 16.8171C23.487 16.7816 24.2574 16.926 24.9647 17.2391C25.6719 17.5521 26.2968 18.0252 26.7901 18.621C26.991 18.8405 27.2344 19.0169 27.5056 19.1395C27.7768 19.2621 28.0701 19.3283 28.3677 19.334C28.6652 19.3397 28.9609 19.2849 29.2366 19.1729C29.5123 19.0608 29.7624 18.8939 29.9716 18.6823C30.5099 18.0741 31.1754 17.5917 31.9209 17.2694C32.6664 16.9471 33.4737 16.7926 34.2856 16.8171C36.574 17.0325 44.7737 21.9615 50.5725 25.7508C47.4539 26.8149 40.6697 28.8347 36.9892 27.692C31.7755 26.0743 29.7437 25.4355 29.7424 25.435C28.8437 25.2661 27.9188 25.2966 27.0331 25.5246C27.0331 25.5246 25.2323 26.0717 20.0108 27.692C16.33 28.8341 9.54603 26.8148 6.42743 25.7508C12.2263 21.9614 20.426 17.0325 22.7144 16.8171ZM28.5 30.1417C26.5816 30.1733 24.6964 29.6391 23.0798 28.6058C26.3005 27.6091 27.5047 27.2426 27.5032 27.2419C29.9467 26.8653 29.5799 27.4258 33.8762 28.5901C32.2693 29.6106 30.4035 30.1491 28.5 30.1417ZM34.6212 40.179C26.678 40.1952 30.1168 40.1998 22.3786 40.179C16.1218 40.179 9.51126 31.7967 6.6613 27.7116C10.4001 28.9162 16.9693 30.7155 20.9994 29.2504C24.7518 32.7953 32.2037 32.7434 35.9888 29.2465C36.1456 29.2954 36.2982 29.3427 36.4612 29.3933C40.724 30.6109 46.8128 28.8154 50.3397 27.71C47.4904 31.7944 40.8788 40.179 34.6212 40.179Z" fill="white"/>
</svg>
