<svg width="181" height="181" viewBox="0 0 181 181" fill="none" xmlns="http://www.w3.org/2000/svg">
<circle cx="90.5" cy="90.5" r="90.5" fill="#6F5DDF" fill-opacity="0.89"/>
<ellipse cx="98.0416" cy="90.5" rx="82.9583" ry="90.5" fill="#6F5DDF"/>
<path d="M110.667 112.893C100.296 123.261 83.483 123.261 73.1128 112.893" stroke="black" stroke-width="5" stroke-miterlimit="10" stroke-linecap="round" stroke-linejoin="round"/>
<path d="M129.718 80.1934C122.805 87.1045 111.598 87.1045 104.685 80.1934" stroke="black" stroke-width="5" stroke-miterlimit="10" stroke-linecap="round" stroke-linejoin="round"/>
<path d="M79.3322 80.1934C72.4198 87.1045 61.2125 87.1045 54.3003 80.1934" stroke="black" stroke-width="5" stroke-miterlimit="10" stroke-linecap="round" stroke-linejoin="round"/>
<path d="M114.042 61.4024C118.951 59.7274 124.593 60.6134 128.821 64.228" stroke="black" stroke-width="5" stroke-miterlimit="10" stroke-linecap="round" stroke-linejoin="round"/>
<path d="M69.7361 61.4024C64.8271 59.7274 59.185 60.6134 54.957 64.228" stroke="black" stroke-width="5" stroke-miterlimit="10" stroke-linecap="round" stroke-linejoin="round"/>
</svg>
