<svg width="265" height="265" viewBox="0 0 265 265" fill="none" xmlns="http://www.w3.org/2000/svg">
<path d="M176 221C176 244.738 156.535 264 132.5 264C108.465 264 89 244.738 89 221C89 197.262 108.465 178 132.5 178C156.535 178 176 197.262 176 221Z" stroke="#6F5DDF" stroke-width="2"/>
<path d="M218 176.5C218 224.847 179.699 264 132.5 264C85.3011 264 47 224.847 47 176.5C47 128.153 85.3011 89 132.5 89C179.699 89 218 128.153 218 176.5Z" stroke="#6F5DDF" stroke-width="2"/>
<circle cx="132.5" cy="132.5" r="131.5" stroke="#6F5DDF" stroke-width="2"/>
<ellipse cx="133.5" cy="245" rx="20.5" ry="20" fill="#6F5DDF"/>
</svg>
